digraph {
  root="Central Trust";
  splines=true;
  overlap=scale; 
  ratio=0.6;  

//    "Company A" -> "Accountant A";
//    "Company B" -> "Accountant B";
//    "Company C" -> "Accountant C";

//    "Company A" -> "Central Trust";
//    "Company B" -> "Central Trust";
//    "Company C" -> "Central Trust";



//    "Accountant A" -> "Company A";
//    "Accountant B" -> "Company B";
//    "Accountant C" -> "Company C";


//    "Accountant A" -> "Central Trust";
//    "Accountant B" -> "Central Trust";
//    "Accountant C" -> "Central Trust";

    "Central Trust" -> "Accountant A";
    "Central Trust" -> "Accountant B";
    "Central Trust" -> "Accountant C";

    "Accountant A" -> "Accountant B" [style=dotted] ;
    "Accountant B" -> "Accountant C" [style=dotted] ;
    "Accountant C" -> "Accountant A" [style=dotted] ; 

    "Accountant A" -> "Accountant C" [style=dotted] ;
    "Accountant B" -> "Accountant A" [style=dotted] ;
    "Accountant C" -> "Accountant B" [style=dotted] ;







}
